<svg width="23" height="18" viewBox="0 0 23 18" fill="none" xmlns="http://www.w3.org/2000/svg">
<path d="M1.80835 13.4661V1.46606H21.8083V13.4661C21.8083 15.1229 20.4652 16.4661 18.8083 16.4661H4.80835C3.1515 16.4661 1.80835 15.1229 1.80835 13.4661Z" fill="#CCDFFF"/>
<path d="M1.80835 1.46606V13.4661C1.80835 15.1229 3.1515 16.4661 4.80835 16.4661H18.8084C20.4652 16.4661 21.8083 15.1229 21.8083 13.4661V1.46606M1.80835 1.46606H21.8083M1.80835 1.46606L11.8083 9.46606L21.8083 1.46606" stroke="white" stroke-width="2"/>
</svg>
