<svg width="21" height="22" viewBox="0 0 21 22" fill="none" xmlns="http://www.w3.org/2000/svg">
<path d="M19.8083 20.2V18C19.8083 14 16.2084 10.2 11.4083 10C6.12835 10 1.80835 13.4 1.80835 17.6V20.2C1.80835 20.6 2.28835 21 2.76835 21H19.0884C19.3284 20.8 19.8083 20.6 19.8083 20.2Z" fill="#CCDFFF" stroke="white" stroke-width="2"/>
<path d="M10.8083 11C13.5698 11 15.8083 8.76142 15.8083 6C15.8083 3.23858 13.5698 1 10.8083 1C8.04693 1 5.80835 3.23858 5.80835 6C5.80835 8.76142 8.04693 11 10.8083 11Z" fill="#CCDFFF" stroke="white" stroke-width="2"/>
</svg>
