<svg width="20" height="22" viewBox="0 0 20 22" fill="none" xmlns="http://www.w3.org/2000/svg">
<path d="M1 19.0078V9.28983C1 8.73754 1.44772 8.28982 2 8.28982H4.5V5.00781C4.5 2.79867 6.29086 1.00781 8.5 1.00781H11.1818C13.391 1.00781 15.1818 2.79867 15.1818 5.00781V8.28982H18C18.5523 8.28982 19 8.73754 19 9.28982V19.0078C19 19.5601 18.5523 20.0078 18 20.0078H2C1.44772 20.0078 1 19.5601 1 19.0078Z" fill="#CCDFFF"/>
<path d="M4.5 8.28982H2C1.44772 8.28982 1 8.73754 1 9.28982V19.0078C1 19.5601 1.44772 20.0078 2 20.0078H18C18.5523 20.0078 19 19.5601 19 19.0078V9.28982C19 8.73754 18.5523 8.28982 18 8.28982H15.1818M4.5 8.28982V5.00781C4.5 2.79867 6.29086 1.00781 8.5 1.00781H11.1818C13.391 1.00781 15.1818 2.79867 15.1818 5.00781V8.28982M4.5 8.28982H15.1818" stroke="white" stroke-width="2"/>
</svg>
