<svg width="91" height="22" viewBox="0 0 91 22" fill="none" xmlns="http://www.w3.org/2000/svg">
<path d="M57.7629 18.0247L57.7028 18.0248L57.6445 18.0391L45.8213 20.9375L32.046 18.0346L31.9953 18.0239L31.9435 18.0239C22.4433 18.0124 12.3925 17.989 0.615234 17.9537V0.598572H89.5216V17.9538C77.5657 17.9901 67.3891 18.0137 57.7629 18.0247Z" stroke="#EFEFEF"/>
</svg>
